Prediction
…
# Fit the regression model
price_lm <-
  lm_workflow %>% 
  fit(airbnb_train)

Using the tidy() function on the price_lm object, take a look at the parameter estimates.

# regression model parameters
tidy(price_lm)

# A tibble: 35 x 5
   term                    estimate std.error statistic  p.value
   <chr>                      <dbl>     <dbl>     <dbl>    <dbl>
 1 (Intercept)            -145.       84.6       -1.71  8.80e- 2
 2 accommodates             23.2       2.20      10.5   1.74e-24
 3 bedrooms                 15.3       5.54       2.75  6.00e- 3
 4 bathrooms                20.2       9.00       2.25  2.50e- 2
 5 cleaning_fee             -0.285     0.117     -2.43  1.53e- 2
 6 availability_90_days     -0.0309    0.0941    -0.328 7.43e- 1
 7 host_response_rate       -0.153     0.336     -0.455 6.49e- 1
 8 host_superhostTRUE        9.64      6.29       1.53  1.26e- 1
 9 host_listings_count       0.328     0.674      0.486 6.27e- 1
10 review_scores_accuracy   11.6       7.34       1.58  1.14e- 1
# ... with 25 more rows
…
