Fitting
…
# Load packages necessary for this script
library(tidyverse)
library(tidymodels)
tidymodels_prefer() # to resolve common conflicts

For this practical, we’ll use a dataset of apartments that were added to Airbnb in 2018 and are located in Berlin. The data is stored in airbnb.csv. Using the following template, load the dataset into R as airbnb:

# Load in airbnb.csv data as airbnb
airbnb <- read_csv(file = "1_Data/airbnb.csv")

Take a look at the first few rows of the dataset by printing it to the console.

airbnb

# A tibble: 1,191 x 23
   price accommodates bedrooms bathrooms cleaning_fee availability_90_~ district
   <dbl>        <dbl>    <dbl>     <dbl>        <dbl>             <dbl> <chr>   
 1    99            3        1       2             30                 3 Pankow  
 2    61            4        1       1             35                 0 Mitte   
 3    50            2        2       0.5            0                 0 Mitte   
 4    30            2        1       1.5           25                31 Mitte   
 5    60            2        1       1             40                87 Tempelh~
 6    45            2        1       1.5           10                 0 Friedri~
 7    32            2        0       1              0                14 Lichten~
 8    62            6        2       1             30                76 Pankow  
 9    50            2        1       1              0                53 Charlot~
10    60            2        1       1              0                16 Charlot~
# ... with 1,181 more rows, and 16 more variables: host_respons_time <chr>,
#   host_response_rate <dbl>, host_superhost <lgl>, host_listings_count <dbl>,
#   review_scores_accuracy <dbl>, review_scores_cleanliness <dbl>,
#   review_scores_checkin <dbl>, review_scores_communication <dbl>,
#   review_scores_location <dbl>, review_scores_value <dbl>, kitchen <chr>,
#   tv <chr>, coffe_machine <chr>, dishwasher <chr>, terrace <chr>,
#   bathtub <chr>
…
Refit the model as you have done above, and call it price_lm.

# Fit the regression model
price_lm <-
  lm_workflow %>% 
  fit(airbnb)

Using the tidy() function on the price_lm object, take a look at the parameter estimates.

# Fit the regression model
tidy(price_lm)

# A tibble: 35 x 5
   term                    estimate std.error statistic  p.value
   <chr>                      <dbl>     <dbl>     <dbl>    <dbl>
 1 (Intercept)            -149.       68.1       -2.19  2.86e- 2
 2 accommodates             23.3       1.78      13.1   9.41e-37
 3 bedrooms                 13.0       4.55       2.86  4.34e- 3
 4 bathrooms                24.0       7.36       3.26  1.15e- 3
 5 cleaning_fee             -0.241     0.0915    -2.64  8.46e- 3
 6 availability_90_days     -0.0400    0.0741    -0.540 5.89e- 1
 7 host_response_rate       -0.160     0.261     -0.613 5.40e- 1
 8 host_superhostTRUE       10.7       4.95       2.17  3.05e- 2
 9 host_listings_count       0.276     0.551      0.501 6.16e- 1
10 review_scores_accuracy    8.43      5.82       1.45  1.48e- 1
# ... with 25 more rows
…
