Fitting
…
.pull-right55[

```r
# fit the workflow
income_lm <- fit(lm_workflow,
                 data = baselers)

tidy(income_lm)
```

```
# A tibble: 25 × 5
   term           estimate std.error statistic   p.value
   <chr>             <dbl>     <dbl>     <dbl>     <dbl>
 1 (Intercept) -192.         631.     -0.304   7.61e-  1
 2 id             0.000895     0.113   0.00792 9.94e-  1
 3 age          115.           2.88   40.1     2.23e-208
 4 height         4.95         3.02    1.64    1.02e-  1
 5 weight         1.01         3.27    0.307   7.59e-  1
 6 children     -48.9         31.9    -1.54    1.25e-  1
 7 happiness   -156.          31.1    -5.02    6.00e-  7
 8 fitness        6.94        17.9     0.389   6.97e-  1
 9 food           2.50         0.142  17.6     2.33e- 60
10 alcohol       26.1          2.47   10.6     8.05e- 25
# … with 15 more rows
```
…
