Tuning
…
penalty_grid <- grid_regular(penalty(), levels = 50)

Tune the model on the training data. To do so using our resampling scheme, use the tune_grid() function instead of the fit() or fit_resamples() function. Pass it the defined workflow as first argument and set the resamples argument to airbnb_folds, and the grid argument to penalty_grid. Save the output as ridge_grid.

# tune the penalty parameter
ridge_grid <-
  ridge_workflow %>% 
  tune_grid(resamples = airbnb_folds,
            grid = penalty_grid)

Use collect_metrics() to evaluate the cross-validation performance of the model across the different values of the penalty parameter.

collect_metrics(ridge_grid)

# A tibble: 100 x 7
    penalty .metric .estimator   mean     n std_err .config              
      <dbl> <chr>   <chr>       <dbl> <int>   <dbl> <chr>                
 1 1   e-10 rmse    standard   61.1      10 19.7    Preprocessor1_Model01
 2 1   e-10 rsq     standard    0.522    10  0.0371 Preprocessor1_Model01
 3 1.60e-10 rmse    standard   61.1      10 19.7    Preprocessor1_Model02
 4 1.60e-10 rsq     standard    0.522    10  0.0371 Preprocessor1_Model02
 5 2.56e-10 rmse    standard   61.1      10 19.7    Preprocessor1_Model03
 6 2.56e-10 rsq     standard    0.522    10  0.0371 Preprocessor1_Model03
 7 4.09e-10 rmse    standard   61.1      10 19.7    Preprocessor1_Model04
 8 4.09e-10 rsq     standard    0.522    10  0.0371 Preprocessor1_Model04
 9 6.55e-10 rmse    standard   61.1      10 19.7    Preprocessor1_Model05
10 6.55e-10 rsq     standard    0.522    10  0.0371 Preprocessor1_Model05
# ... with 90 more rows
…
penalty_grid <- tibble(penalty = seq(0, 250, length.out = 200))

penalty_grid <- tibble(penalty = seq(0, 250, length.out = 200))

# step 5
ridge_grid <-
  ridge_workflow %>% 
  tune_grid(resamples = airbnb_folds,
            grid = penalty_grid)

# step 6
collect_metrics(ridge_grid)

# A tibble: 400 x 7
   penalty .metric .estimator   mean     n std_err .config               
     <dbl> <chr>   <chr>       <dbl> <int>   <dbl> <chr>                 
 1    0    rmse    standard   61.1      10 19.7    Preprocessor1_Model001
 2    0    rsq     standard    0.522    10  0.0371 Preprocessor1_Model001
 3    1.26 rmse    standard   61.1      10 19.7    Preprocessor1_Model002
 4    1.26 rsq     standard    0.522    10  0.0371 Preprocessor1_Model002
 5    2.51 rmse    standard   61.1      10 19.7    Preprocessor1_Model003
 6    2.51 rsq     standard    0.522    10  0.0371 Preprocessor1_Model003
 7    3.77 rmse    standard   61.1      10 19.7    Preprocessor1_Model004
 8    3.77 rsq     standard    0.522    10  0.0371 Preprocessor1_Model004
 9    5.03 rmse    standard   61.2      10 19.8    Preprocessor1_Model005
10    5.03 rsq     standard    0.521    10  0.0371 Preprocessor1_Model005
# ... with 390 more rows
…
Now let’s finalize our workflow using the finalize_workflow() function. Pass it the ridge_workflow and the best_ridge objects as first and second arguments. Save the output as final_ridge.

final_ridge <- 
  ridge_workflow %>% 
  finalize_workflow(best_ridge)

Now we can fit the model using the final workflow. Use the fit() function to this end, by passing it the final_ridge workflow and airbnb_train. Save the output as ridge_res.

ridge_res <- fit(final_ridge, airbnb_train) 

Use the tidy() function to look at the parameter values of ridge_res.

tidy(ridge_res) 

# A tibble: 35 x 3
   term                   estimate penalty
   <chr>                     <dbl>   <dbl>
 1 (Intercept)              69.9      96.7
 2 accommodates             19.7      96.7
 3 bedrooms                 13.0      96.7
 4 bathrooms                 7.47     96.7
 5 cleaning_fee              2.00     96.7
 6 availability_90_days      1.24     96.7
 7 host_response_rate       -0.479    96.7
 8 host_superhost            4.65     96.7
 9 host_listings_count       2.84     96.7
10 review_scores_accuracy    1.03     96.7
# ... with 25 more rows
…
penalty_grid <- tibble(penalty = seq(0, 25, length.out = 200))

Tune the model on the training data. To do so using our resampling scheme, use the tune_grid() function instead of the fit() or fit_resamples() function. Pass it the defined workflow as first argument and set the resamples argument to airbnb_folds, and the grid argument to penalty_grid. Save the output as lasso_grid.

# tune the penalty parameter
lasso_grid <-
  lasso_workflow %>% 
  tune_grid(resamples = airbnb_folds,
            grid = penalty_grid)

Use collect_metrics() to evaluate the cross-validation performance of the model across the different values of the penalty parameter.

collect_metrics(lasso_grid)

# A tibble: 400 x 7
   penalty .metric .estimator   mean     n std_err .config               
     <dbl> <chr>   <chr>       <dbl> <int>   <dbl> <chr>                 
 1   0     rmse    standard   62.7      10 19.4    Preprocessor1_Model001
 2   0     rsq     standard    0.511    10  0.0392 Preprocessor1_Model001
 3   0.126 rmse    standard   62.5      10 19.5    Preprocessor1_Model002
 4   0.126 rsq     standard    0.512    10  0.0392 Preprocessor1_Model002
 5   0.251 rmse    standard   62.2      10 19.5    Preprocessor1_Model003
 6   0.251 rsq     standard    0.514    10  0.0390 Preprocessor1_Model003
 7   0.377 rmse    standard   62.0      10 19.5    Preprocessor1_Model004
 8   0.377 rsq     standard    0.516    10  0.0389 Preprocessor1_Model004
 9   0.503 rmse    standard   61.8      10 19.6    Preprocessor1_Model005
10   0.503 rsq     standard    0.518    10  0.0387 Preprocessor1_Model005
# ... with 390 more rows
…
Finalize the workflow using the finalize_workflow() function. Pass it the lasso_workflow and the best_lasso objects as first and second arguments. Save the output as final_lasso.

final_lasso <- 
  lasso_workflow %>% 
  finalize_workflow(best_lasso)

Fit the model using the final workflow. Use the fit() function to this end, by passing it the final_lasso workflow and airbnb_train. Save the output as lasso_res.

lasso_res <- fit(final_lasso, airbnb_train) 

Use the tidy() function to look at the parameter values of lasso_res. Which variables are important and which were set to 0?

tidy(lasso_res) 

# A tibble: 35 x 3
   term                   estimate penalty
   <chr>                     <dbl>   <dbl>
 1 (Intercept)               71.7     14.8
 2 accommodates              37.5     14.8
 3 bedrooms                   4.56    14.8
 4 bathrooms                  0       14.8
 5 cleaning_fee               0       14.8
 6 availability_90_days       0       14.8
 7 host_response_rate         0       14.8
 8 host_superhost             0       14.8
 9 host_listings_count        0       14.8
10 review_scores_accuracy     0       14.8
# ... with 25 more rows
…
